{"frames": {

"doll-01.png":
{
	"frame": {"x":2,"y":2,"w":800,"h":533},
	"rotated": false,
	"trimmed": false,
	"spriteSourceSize": {"x":0,"y":0,"w":800,"h":533},
	"sourceSize": {"w":800,"h":533},
	"pivot": {"x":0.5,"y":0.5}
}},
"meta": {
	"app": "http://www.codeandweb.com/texturepacker",
	"version": "1.0",
	"image": "doll_small_f.png",
	"format": "RGBA8888",
	"size": {"w":1024,"h":1024},
	"scale": "1",
	"smartupdate": "$TexturePacker:SmartUpdate:b1dc69f2631e7f9d9afcce4558cc2d9b:53dd98088423cd5382e688c578c9788b:4c7ec5695b174872c377a5ec00097973$"
}
}
