{"frames": {

"001.png":
{
	"frame": {"x":440,"y":964,"w":154,"h":179},
	"rotated": false,
	"trimmed": true,
	"spriteSourceSize": {"x":134,"y":4,"w":154,"h":179},
	"sourceSize": {"w":405,"h":483},
	"pivot": {"x":0.5,"y":0.5}
},
"002.png":
{
	"frame": {"x":2,"y":964,"w":254,"h":302},
	"rotated": false,
	"trimmed": true,
	"spriteSourceSize": {"x":98,"y":13,"w":254,"h":302},
	"sourceSize": {"w":405,"h":483},
	"pivot": {"x":0.5,"y":0.5}
},
"003.png":
{
	"frame": {"x":2,"y":2,"w":401,"h":479},
	"rotated": false,
	"trimmed": true,
	"spriteSourceSize": {"x":2,"y":2,"w":401,"h":479},
	"sourceSize": {"w":405,"h":483},
	"pivot": {"x":0.5,"y":0.5}
},
"004.png":
{
	"frame": {"x":405,"y":2,"w":401,"h":479},
	"rotated": false,
	"trimmed": true,
	"spriteSourceSize": {"x":2,"y":2,"w":401,"h":479},
	"sourceSize": {"w":405,"h":483},
	"pivot": {"x":0.5,"y":0.5}
},
"005.png":
{
	"frame": {"x":2,"y":483,"w":401,"h":479},
	"rotated": false,
	"trimmed": true,
	"spriteSourceSize": {"x":2,"y":2,"w":401,"h":479},
	"sourceSize": {"w":405,"h":483},
	"pivot": {"x":0.5,"y":0.5}
},
"006.png":
{
	"frame": {"x":405,"y":483,"w":401,"h":479},
	"rotated": false,
	"trimmed": true,
	"spriteSourceSize": {"x":2,"y":2,"w":401,"h":479},
	"sourceSize": {"w":405,"h":483},
	"pivot": {"x":0.5,"y":0.5}
},
"007.png":
{
	"frame": {"x":258,"y":964,"w":180,"h":144},
	"rotated": false,
	"trimmed": true,
	"spriteSourceSize": {"x":121,"y":3,"w":180,"h":144},
	"sourceSize": {"w":405,"h":483},
	"pivot": {"x":0.5,"y":0.5}
},
"008.png":
{
	"frame": {"x":808,"y":204,"w":180,"h":460},
	"rotated": false,
	"trimmed": true,
	"spriteSourceSize": {"x":106,"y":3,"w":180,"h":460},
	"sourceSize": {"w":405,"h":483},
	"pivot": {"x":0.5,"y":0.5}
},
"009.png":
{
	"frame": {"x":808,"y":666,"w":180,"h":460},
	"rotated": false,
	"trimmed": true,
	"spriteSourceSize": {"x":106,"y":3,"w":180,"h":460},
	"sourceSize": {"w":405,"h":483},
	"pivot": {"x":0.5,"y":0.5}
},
"010.png":
{
	"frame": {"x":808,"y":2,"w":184,"h":200},
	"rotated": false,
	"trimmed": true,
	"spriteSourceSize": {"x":117,"y":13,"w":184,"h":200},
	"sourceSize": {"w":405,"h":483},
	"pivot": {"x":0.5,"y":0.5}
},
"011.png":
{
	"frame": {"x":258,"y":1110,"w":149,"h":140},
	"rotated": false,
	"trimmed": true,
	"spriteSourceSize": {"x":136,"y":7,"w":149,"h":140},
	"sourceSize": {"w":405,"h":483},
	"pivot": {"x":0.5,"y":0.5}
}},
"meta": {
	"app": "http://www.codeandweb.com/texturepacker",
	"version": "1.0",
	"image": "cloth_bottom.png",
	"format": "RGBA8888",
	"size": {"w":1024,"h":2048},
	"scale": "1",
	"smartupdate": "$TexturePacker:SmartUpdate:4ca1ca751eb05f7959547dcf42f183ca:d98a498057d626fe0c1527cb495074fb:ca2711726be1b8b5dfd22a1f94849601$"
}
}
