{"frames": {

"001.png":
{
	"frame": {"x":403,"y":458,"w":105,"h":92},
	"rotated": false,
	"trimmed": true,
	"spriteSourceSize": {"x":57,"y":2,"w":105,"h":92},
	"sourceSize": {"w":183,"h":201},
	"pivot": {"x":0.5,"y":0.5}
},
"002.png":
{
	"frame": {"x":2,"y":535,"w":129,"h":83},
	"rotated": false,
	"trimmed": true,
	"spriteSourceSize": {"x":48,"y":11,"w":129,"h":83},
	"sourceSize": {"w":183,"h":201},
	"pivot": {"x":0.5,"y":0.5}
},
"003.png":
{
	"frame": {"x":272,"y":458,"w":129,"h":83},
	"rotated": false,
	"trimmed": true,
	"spriteSourceSize": {"x":48,"y":11,"w":129,"h":83},
	"sourceSize": {"w":183,"h":201},
	"pivot": {"x":0.5,"y":0.5}
},
"004.png":
{
	"frame": {"x":346,"y":2,"w":160,"h":134},
	"rotated": false,
	"trimmed": true,
	"spriteSourceSize": {"x":1,"y":7,"w":160,"h":134},
	"sourceSize": {"w":183,"h":201},
	"pivot": {"x":0.5,"y":0.5}
},
"005.png":
{
	"frame": {"x":346,"y":138,"w":160,"h":134},
	"rotated": false,
	"trimmed": true,
	"spriteSourceSize": {"x":1,"y":7,"w":160,"h":134},
	"sourceSize": {"w":183,"h":201},
	"pivot": {"x":0.5,"y":0.5}
},
"006.png":
{
	"frame": {"x":2,"y":186,"w":147,"h":163},
	"rotated": false,
	"trimmed": true,
	"spriteSourceSize": {"x":31,"y":14,"w":147,"h":163},
	"sourceSize": {"w":183,"h":201},
	"pivot": {"x":0.5,"y":0.5}
},
"007.png":
{
	"frame": {"x":151,"y":186,"w":147,"h":163},
	"rotated": false,
	"trimmed": true,
	"spriteSourceSize": {"x":31,"y":14,"w":147,"h":163},
	"sourceSize": {"w":183,"h":201},
	"pivot": {"x":0.5,"y":0.5}
},
"008.png":
{
	"frame": {"x":139,"y":351,"w":131,"h":184},
	"rotated": false,
	"trimmed": true,
	"spriteSourceSize": {"x":31,"y":14,"w":131,"h":184},
	"sourceSize": {"w":183,"h":201},
	"pivot": {"x":0.5,"y":0.5}
},
"009.png":
{
	"frame": {"x":133,"y":537,"w":124,"h":163},
	"rotated": false,
	"trimmed": true,
	"spriteSourceSize": {"x":31,"y":14,"w":124,"h":163},
	"sourceSize": {"w":183,"h":201},
	"pivot": {"x":0.5,"y":0.5}
},
"010.png":
{
	"frame": {"x":2,"y":2,"w":170,"h":182},
	"rotated": false,
	"trimmed": true,
	"spriteSourceSize": {"x":11,"y":16,"w":170,"h":182},
	"sourceSize": {"w":183,"h":201},
	"pivot": {"x":0.5,"y":0.5}
},
"011.png":
{
	"frame": {"x":174,"y":2,"w":170,"h":182},
	"rotated": false,
	"trimmed": true,
	"spriteSourceSize": {"x":11,"y":16,"w":170,"h":182},
	"sourceSize": {"w":183,"h":201},
	"pivot": {"x":0.5,"y":0.5}
},
"012.png":
{
	"frame": {"x":300,"y":274,"w":135,"h":182},
	"rotated": false,
	"trimmed": true,
	"spriteSourceSize": {"x":31,"y":16,"w":135,"h":182},
	"sourceSize": {"w":183,"h":201},
	"pivot": {"x":0.5,"y":0.5}
},
"013.png":
{
	"frame": {"x":2,"y":351,"w":135,"h":182},
	"rotated": false,
	"trimmed": true,
	"spriteSourceSize": {"x":31,"y":16,"w":135,"h":182},
	"sourceSize": {"w":183,"h":201},
	"pivot": {"x":0.5,"y":0.5}
},
"014.png":
{
	"frame": {"x":2,"y":620,"w":111,"h":183},
	"rotated": false,
	"trimmed": true,
	"spriteSourceSize": {"x":43,"y":16,"w":111,"h":183},
	"sourceSize": {"w":183,"h":201},
	"pivot": {"x":0.5,"y":0.5}
},
"015.png":
{
	"frame": {"x":259,"y":543,"w":110,"h":152},
	"rotated": false,
	"trimmed": true,
	"spriteSourceSize": {"x":46,"y":16,"w":110,"h":152},
	"sourceSize": {"w":183,"h":201},
	"pivot": {"x":0.5,"y":0.5}
},
"016.png":
{
	"frame": {"x":371,"y":552,"w":105,"h":92},
	"rotated": false,
	"trimmed": true,
	"spriteSourceSize": {"x":57,"y":2,"w":105,"h":92},
	"sourceSize": {"w":183,"h":201},
	"pivot": {"x":0.5,"y":0.5}
}},
"meta": {
	"app": "http://www.codeandweb.com/texturepacker",
	"version": "1.0",
	"image": "hairs.png",
	"format": "RGBA8888",
	"size": {"w":512,"h":1024},
	"scale": "1",
	"smartupdate": "$TexturePacker:SmartUpdate:82646bb9e9b7e3326f541278159455af:87d5cd7684ebaa7d9acda6a044fdadc9:c387c070153f5c8045ee643223fab356$"
}
}
