{"frames": {

"001.png":
{
	"frame": {"x":2,"y":2,"w":210,"h":55},
	"rotated": false,
	"trimmed": false,
	"spriteSourceSize": {"x":0,"y":0,"w":210,"h":55},
	"sourceSize": {"w":210,"h":55},
	"pivot": {"x":0.5,"y":0.5}
},
"002.png":
{
	"frame": {"x":214,"y":2,"w":210,"h":55},
	"rotated": false,
	"trimmed": false,
	"spriteSourceSize": {"x":0,"y":0,"w":210,"h":55},
	"sourceSize": {"w":210,"h":55},
	"pivot": {"x":0.5,"y":0.5}
},
"003.png":
{
	"frame": {"x":2,"y":59,"w":210,"h":55},
	"rotated": false,
	"trimmed": false,
	"spriteSourceSize": {"x":0,"y":0,"w":210,"h":55},
	"sourceSize": {"w":210,"h":55},
	"pivot": {"x":0.5,"y":0.5}
},
"004.png":
{
	"frame": {"x":214,"y":59,"w":210,"h":55},
	"rotated": false,
	"trimmed": false,
	"spriteSourceSize": {"x":0,"y":0,"w":210,"h":55},
	"sourceSize": {"w":210,"h":55},
	"pivot": {"x":0.5,"y":0.5}
},
"005.png":
{
	"frame": {"x":2,"y":116,"w":210,"h":55},
	"rotated": false,
	"trimmed": false,
	"spriteSourceSize": {"x":0,"y":0,"w":210,"h":55},
	"sourceSize": {"w":210,"h":55},
	"pivot": {"x":0.5,"y":0.5}
},
"006.png":
{
	"frame": {"x":214,"y":116,"w":210,"h":55},
	"rotated": false,
	"trimmed": false,
	"spriteSourceSize": {"x":0,"y":0,"w":210,"h":55},
	"sourceSize": {"w":210,"h":55},
	"pivot": {"x":0.5,"y":0.5}
},
"007.png":
{
	"frame": {"x":2,"y":173,"w":210,"h":55},
	"rotated": false,
	"trimmed": false,
	"spriteSourceSize": {"x":0,"y":0,"w":210,"h":55},
	"sourceSize": {"w":210,"h":55},
	"pivot": {"x":0.5,"y":0.5}
},
"008.png":
{
	"frame": {"x":214,"y":173,"w":210,"h":55},
	"rotated": false,
	"trimmed": false,
	"spriteSourceSize": {"x":0,"y":0,"w":210,"h":55},
	"sourceSize": {"w":210,"h":55},
	"pivot": {"x":0.5,"y":0.5}
},
"009.png":
{
	"frame": {"x":2,"y":230,"w":210,"h":55},
	"rotated": false,
	"trimmed": false,
	"spriteSourceSize": {"x":0,"y":0,"w":210,"h":55},
	"sourceSize": {"w":210,"h":55},
	"pivot": {"x":0.5,"y":0.5}
},
"010.png":
{
	"frame": {"x":214,"y":230,"w":210,"h":55},
	"rotated": false,
	"trimmed": false,
	"spriteSourceSize": {"x":0,"y":0,"w":210,"h":55},
	"sourceSize": {"w":210,"h":55},
	"pivot": {"x":0.5,"y":0.5}
},
"011.png":
{
	"frame": {"x":2,"y":287,"w":210,"h":55},
	"rotated": false,
	"trimmed": false,
	"spriteSourceSize": {"x":0,"y":0,"w":210,"h":55},
	"sourceSize": {"w":210,"h":55},
	"pivot": {"x":0.5,"y":0.5}
},
"012.png":
{
	"frame": {"x":214,"y":287,"w":210,"h":55},
	"rotated": false,
	"trimmed": false,
	"spriteSourceSize": {"x":0,"y":0,"w":210,"h":55},
	"sourceSize": {"w":210,"h":55},
	"pivot": {"x":0.5,"y":0.5}
}},
"meta": {
	"app": "http://www.codeandweb.com/texturepacker",
	"version": "1.0",
	"image": "shadows.png",
	"format": "RGBA8888",
	"size": {"w":512,"h":512},
	"scale": "1",
	"smartupdate": "$TexturePacker:SmartUpdate:e92b9a1bba1c4a777e17fce264da57fa:e06d3d33f6e9a1ac404f13f6ba91f499:acf6b6fa162e99772f5b4fe896f72ed5$"
}
}
