{
	"objects": [
		[
			[
				{
					"elementType": "instance",
					"name": "",
					"rotation": 0,
					"matrix": {"a": 1, "b": 0, "c": 0, "d": 1, "tx": 0, "ty": 0},
					"scaleX": 1,
					"scaleY": 1,
					"x": 0, "y": 0, "width": 800, "height": 533,
					"typeName": "Bitmap",
					"instanceName": "background-01.png",
					"depth": 10
				},
				{
					"elementType": "instance",
					"name": "doll",
					"rotation": 0,
					"matrix": {"a": 1, "b": 0, "c": 0, "d": 1, "tx": 0, "ty": 0},
					"scaleX": 1,
					"scaleY": 1,
					"x": 0, "y": 0, "width": 800, "height": 533,
					"typeName": "Bitmap",
					"instanceName": "doll_e",
					"depth": 9
				},
				{
					"elementType": "instance",
					"name": "wings",
					"rotation": 0,
					"matrix": {"a": 1, "b": 0, "c": 0, "d": 1, "tx": 651, "ty": 205},
					"scaleX": 1,
					"scaleY": 1,
					"x": 651, "y": 205, "width": 113, "height": 115,
					"typeName": "Bitmap",
					"instanceName": "wings",
					"depth": 8
				},
				{
					"elementType": "instance",
					"name": "jewelry",
					"rotation": 0,
					"matrix": {"a": 1, "b": 0, "c": 0, "d": 1, "tx": 48, "ty": 372},
					"scaleX": 1,
					"scaleY": 1,
					"x": 48, "y": 372, "width": 107, "height": 90,
					"typeName": "Bitmap",
					"instanceName": "jewelry",
					"depth": 7
				},
				{
					"elementType": "instance",
					"name": "cloth_bottom",
					"rotation": 0,
					"matrix": {"a": 1, "b": 0, "c": 0, "d": 1, "tx": 51, "ty": 206},
					"scaleX": 1,
					"scaleY": 1,
					"x": 51, "y": 206, "width": 104, "height": 100,
					"typeName": "Bitmap",
					"instanceName": "cloth_bottom",
					"depth": 6
				},
				{
					"elementType": "instance",
					"name": "hairs",
					"rotation": 0,
					"matrix": {"a": 1, "b": 0, "c": 0, "d": 1, "tx": 669, "ty": 48},
					"scaleX": 1,
					"scaleY": 1,
					"x": 669, "y": 48, "width": 80, "height": 99,
					"typeName": "Bitmap",
					"instanceName": "hairs",
					"depth": 5
				},
				{
					"elementType": "instance",
					"name": "accessory",
					"rotation": 0,
					"matrix": {"a": 1, "b": 0, "c": 0, "d": 1, "tx": 651, "ty": 375},
					"scaleX": 1,
					"scaleY": 1,
					"x": 651, "y": 375, "width": 107, "height": 94,
					"typeName": "Bitmap",
					"instanceName": "accessory",
					"depth": 4
				},
				{
					"elementType": "instance",
					"name": "cloth_top",
					"rotation": 0,
					"matrix": {"a": 1, "b": 0, "c": 0, "d": 1, "tx": 49, "ty": 49},
					"scaleX": 1,
					"scaleY": 1,
					"x": 49, "y": 49, "width": 106, "height": 98,
					"typeName": "Bitmap",
					"instanceName": "cloth_top",
					"depth": 3
				},
				{
					"elementType": "instance",
					"name": "soundBtn",
					"rotation": 0,
					"matrix": {"a": 1, "b": 0, "c": 0, "d": 1, "tx": 532, "ty": 470},
					"scaleX": 1,
					"scaleY": 1,
					"x": 532, "y": 470, "width": 62, "height": 60,
					"typeName": "Bitmap",
					"instanceName": "soundBtn",
					"depth": 2
				},
				{
					"elementType": "instance",
					"name": "menuBtn",
					"rotation": 0,
					"matrix": {"a": 1, "b": 0, "c": 0, "d": 1, "tx": 606, "ty": 470},
					"scaleX": 1,
					"scaleY": 1,
					"x": 606, "y": 470, "width": 62, "height": 61,
					"typeName": "Bitmap",
					"instanceName": "menuBtn",
					"depth": 1
				},
				{
					"elementType": "instance",
					"name": "nextBtn",
					"rotation": 0,
					"matrix": {"a": 1, "b": 0, "c": 0, "d": 1, "tx": 732, "ty": 470},
					"scaleX": 1,
					"scaleY": 1,
					"x": 732, "y": 470, "width": 62, "height": 60,
					"typeName": "Bitmap",
					"instanceName": "nextBtn",
					"depth": 0
				}
			]
		]
	],
	"libItems": {
		"cloth_top": {
			"type": "movie clip",
			"typeName": "Bitmap",
			"source": "cloth_top_icon.png"
		},
		"cloth_bottom": {
			"type": "movie clip",
			"typeName": "Bitmap",
			"source": "cloth_bottom_icon.png"
		},
		"jewelry": {
			"type": "movie clip",
			"typeName": "Bitmap",
			"source": "jewellry_icon.png"
		},
		"doll_e": {
			"type": "movie clip",
			"typeName": "Bitmap",
			"source": "doll-01.png"
		},
		"hairs": {
			"type": "movie clip",
			"typeName": "Bitmap",
			"source": "hair_icon.png"
		},
		"wings": {
			"type": "movie clip",
			"typeName": "Bitmap",
			"source": "wings_icon.png"
		},
		"accessory": {
			"type": "movie clip",
			"typeName": "Bitmap",
			"source": "acessory_icon.png"
		},
		"menuBtn": {
			"type": "movie clip",
			"typeName": "Bitmap",
			"source": "pause.png"
		},
		"nextBtn": {
			"type": "movie clip",
			"typeName": "Bitmap",
			"source": "next.png"
		},
		"soundBtn": {
			"type": "movie clip",
			"typeName": "Bitmap",
			"source": "music_on.png"
		},
		"acessory_icon.png": {
			"type": "bitmap",
			"source": "acessory_icon.png"
		},
		"background-01.png": {
			"type": "bitmap",
			"source": "background-01.png"
		},
		"cloth_bottom_icon.png": {
			"type": "bitmap",
			"source": "cloth_bottom_icon.png"
		},
		"cloth_top_icon.png": {
			"type": "bitmap",
			"source": "cloth_top_icon.png"
		},
		"doll-01.png": {
			"type": "bitmap",
			"source": "doll-01.png"
		},
		"hair_icon.png": {
			"type": "bitmap",
			"source": "hair_icon.png"
		},
		"jewellry_icon.png": {
			"type": "bitmap",
			"source": "jewellry_icon.png"
		},
		"music_on.png": {
			"type": "bitmap",
			"source": "music_on.png"
		},
		"next.png": {
			"type": "bitmap",
			"source": "next.png"
		},
		"pause.png": {
			"type": "bitmap",
			"source": "pause.png"
		},
		"wings_icon.png": {
			"type": "bitmap",
			"source": "wings_icon.png"
		}
	}
}